{
	"gifs": [

		{
			"name": "clear",
			"url": "https://gitlab.com/deno750/ContenitoreDiFiles/-/raw/master/gifsWidgetApp/sun3.gif"
		},
		{
			"name": "rain",
			"url": "https://gitlab.com/deno750/ContenitoreDiFiles/raw/master/gifsWidgetApp/wind_space4.gif"
		},
		{
			"name": "snow",
			"url": "https://bitbucket.org/deno750/overdropfiles/raw/9bd5d5380889306e7fa2ac0866734ad409c061d4/gifsWidgetApp/snow.gif"
		},
		{
			"name": "cloudy",
			"url": "https://bitbucket.org/deno750/overdropfiles/raw/1518acd44344abd4b4972843ad4f38878239376c/gifsWidgetApp/space_rain.gif"
		},
		{
			"name": "sleet",
			"url": "https://bitbucket.org/deno750/overdropfiles/raw/9bd5d5380889306e7fa2ac0866734ad409c061d4/gifsWidgetApp/snow.gif"
		},
		{
			"name": "wind",
			"url": "https://bitbucket.org/deno750/overdropfiles/raw/2cebc0890e99056607d2e5451d3ef956425bcd77/gifsWidgetApp/wind_gif.gif"
		},
		{
			"name": "fog",
			"url": "https://bitbucket.org/deno750/overdropfiles/raw/9bd5d5380889306e7fa2ac0866734ad409c061d4/gifsWidgetApp/fog.gif"
		},
		{
			"name": "partly cloudy",
			"url": "https://gitlab.com/deno750/ContenitoreDiFiles/raw/master/gifsWidgetApp/space_partlycloudy.gif"
		}
	]
}